…
``` r
# access labels by converting those vars to factors
example %>% 
  mutate_at(cit_norm_indicators, funs(as_factor(.)))
```

    ## # A tibble: 329,135 x 17
    ##    ICCS_year COUNTRY IDSTUD obey  rights local work  envir vote  history
    ##        <int> <chr>    <int> <fct> <fct>  <fct> <fct> <fct> <fct> <fct>  
    ##  1      1999 AUS      10302 impo~ not i~ impo~ impo~ impo~ impo~ import~
    ##  2      1999 AUS      10305 impo~ not i~ impo~ impo~ impo~ impo~ not im~
    ##  3      1999 AUS      10311 impo~ <NA>   <NA>  impo~ impo~ not ~ not im~
    ##  4      1999 AUS      10313 impo~ not i~ not ~ not ~ not ~ impo~ not im~
    ##  5      1999 AUS      10317 impo~ impor~ impo~ not ~ impo~ not ~ import~
    ##  6      1999 AUS      10319 impo~ impor~ impo~ impo~ impo~ impo~ not im~
    ##  7      1999 AUS      10324 impo~ impor~ impo~ impo~ impo~ impo~ not im~
    ##  8      1999 AUS      10325 impo~ <NA>   impo~ impo~ impo~ impo~ import~
    ##  9      1999 AUS      10326 impo~ impor~ impo~ impo~ impo~ not ~ not im~
    ## 10      1999 AUS      10327 impo~ impor~ impo~ impo~ impo~ impo~ import~
    ## # ... with 329,125 more rows, and 7 more variables: respect <fct>,
    ## #   news <fct>, protest <fct>, discuss <fct>, party <fct>, id <int>,
    ## #   id2 <chr>
…
